…
```
## Warning: package 'ggplot2' was built under R version 3.3.2
```

```r
stepsint_avg <- steps %>%
                  group_by(interval) %>%
                  summarize(meanInt = mean(steps, na.rm=TRUE))

tbl_df(stepsint_avg)
```

```
## # A tibble: 288 × 2
##    interval   meanInt
##       <int>     <dbl>
## 1         0 1.7169811
## 2         5 0.3396226
## 3        10 0.1320755
## 4        15 0.1509434
## 5        20 0.0754717
## 6        25 2.0943396
## 7        30 0.5283019
## 8        35 0.8679245
## 9        40 0.0000000
## 10       45 1.4716981
## # ... with 278 more rows
```
…
missing_count
```

[1] 2304

```r
steps_meanInt1 <- steps %>%
    group_by(interval) %>%
    mutate(meanIntsteps = mean(steps, na.rm=TRUE))

steps_meanInt1
```

Source: local data frame [17,568 x 4]
Groups: interval [288]

   steps     date interval meanIntsteps
   <int>    <chr>    <int>        <dbl>
1     NA 10/01/12        0    1.7169811
2     NA 10/01/12        5    0.3396226
3     NA 10/01/12       10    0.1320755
4     NA 10/01/12       15    0.1509434
5     NA 10/01/12       20    0.0754717
6     NA 10/01/12       25    2.0943396
7     NA 10/01/12       30    0.5283019
8     NA 10/01/12       35    0.8679245
9     NA 10/01/12       40    0.0000000
10    NA 10/01/12       45    1.4716981
# ... with 17,558 more rows

```r
steps_meanInt1$steps <- ifelse(is.na(steps_meanInt1$steps) == TRUE, steps_meanInt1$meanIntsteps, steps_meanInt1$steps)

steps_meanInt1
```

Source: local data frame [17,568 x 4]
Groups: interval [288]

       steps     date interval meanIntsteps
       <dbl>    <chr>    <int>        <dbl>
1  1.7169811 10/01/12        0    1.7169811
2  0.3396226 10/01/12        5    0.3396226
3  0.1320755 10/01/12       10    0.1320755
4  0.1509434 10/01/12       15    0.1509434
5  0.0754717 10/01/12       20    0.0754717
6  2.0943396 10/01/12       25    2.0943396
7  0.5283019 10/01/12       30    0.5283019
8  0.8679245 10/01/12       35    0.8679245
9  0.0000000 10/01/12       40    0.0000000
10 1.4716981 10/01/12       45    1.4716981
# ... with 17,558 more rows
…
weekday weekend 
   4896    2016 

```r
steps1 <- steps %>% 
          group_by(interval, day_type1) %>%
          summarize(meanint1 = mean(steps, na.rm=TRUE))

steps1
```

Source: local data frame [864 x 3]
Groups: interval [?]

   interval day_type1  meanint1
      <int>     <chr>     <dbl>
1         0   weekday 7.3636364
2         0   weekend 0.0000000
3         0      <NA> 0.2857143
4         5   weekday 1.6363636
5         5   weekend 0.0000000
6         5      <NA> 0.0000000
7        10   weekday 0.6363636
8        10   weekend 0.0000000
9        10      <NA> 0.0000000
10       15   weekday 0.7272727
# ... with 854 more rows
…
